<svg xmlns="http://www.w3.org/2000/svg" width="109.98" height="100.302" viewBox="0 0 109.98 100.302">
  <g id="Gruppe_91" data-name="Gruppe 91" transform="translate(0 0)">
    <g id="Gruppe_26" data-name="Gruppe 26" transform="translate(0 0)">
      <g id="Gruppe_25" data-name="Gruppe 25">
        <g id="Gruppe_24" data-name="Gruppe 24">
          <path id="Pfad_16" data-name="Pfad 16" d="M398.123,48.258a29.026,29.026,0,0,1,5.432-12.614c5.967-7.451,13.964-11.588,22.972-13.89,16.767-4.284,33.131-3.335,48.535,5.047,7.95,4.326,14.105,10.5,16.151,19.8a20.117,20.117,0,0,1-2.672,15.258c-7.436,12.03-18.331,18.909-32.354,20.556-4.865.572-9.26,1.612-12.45,5.682a13.268,13.268,0,0,1-2.748,2.406c-8.12,5.859-17.618,8.432-27.169,11.543,1.8-2.983,3.531-5.647,5.053-8.425a19.706,19.706,0,0,0,2.641-11.234,3.342,3.342,0,0,0-2.292-3.24c-11.226-4.633-18.484-12.669-20.7-24.858a7.288,7.288,0,0,0-.4-1.138Z" transform="translate(-398.123 -19.258)" fill="#fff"/>
          <path id="Pfad_17" data-name="Pfad 17" d="M511.358,59.173c7.438,6.15,10.88,13.352,10.09,22.423-.687,7.9-5.051,13.627-11.136,18.141-3.449,2.558-7.28,4.6-10.885,6.954-.656.429-1.508,1.27-1.493,1.9.129,5.5.829,10.906,4.173,15.529a63.514,63.514,0,0,0,4.31,4.769c-4.019-.964-7.465-1.57-10.768-2.626-8.98-2.873-16.684-7.966-23.8-14.06a6.828,6.828,0,0,0-3.2-1.249c-4.075-.7-8.174-1.264-12.263-1.88l-.71-1.022a7.491,7.491,0,0,0,1.775-.71c3.993-2.949,7.823-6.142,11.983-8.828,1.569-1.014,3.864-.953,5.846-1.273,9.08-1.469,17.814-3.9,25.278-9.558,8.506-6.453,11.853-15.2,11-25.7C511.506,61.262,511.458,60.535,511.358,59.173Z" transform="translate(-411.579 -28.59)" fill="#fff"/>
        </g>
      </g>
    </g>
    <g id="Gruppe_28" data-name="Gruppe 28" transform="translate(29.146 12.284)">
      <g id="Gruppe_27" data-name="Gruppe 27" transform="translate(0 0)">
        <path id="Pfad_18" data-name="Pfad 18" d="M436.277,35.311a49.28,49.28,0,0,0,17.559,3.338,44.86,44.86,0,0,0,17.443-3.359,2.337,2.337,0,0,1,.141.5c-.017,4.718.135,9.446-.1,14.154a47.822,47.822,0,0,1-4.591,17.989,34.948,34.948,0,0,1-6.494,9.172,26.19,26.19,0,0,1-5.843,4.594,1.412,1.412,0,0,1-1.2.048,29.342,29.342,0,0,1-3.739-2.548,32.8,32.8,0,0,1-8.451-10.622,44.655,44.655,0,0,1-4.659-18.048c-.182-4.817-.128-9.644-.173-14.466A5.54,5.54,0,0,1,436.277,35.311Z" transform="translate(-436.162 -35.29)" fill="#d3bd53"/>
      </g>
    </g>
  </g>
</svg>
