<svg id="Gruppe_94" data-name="Gruppe 94" xmlns="http://www.w3.org/2000/svg" width="33.77" height="33.774" viewBox="0 0 33.77 33.774">
  <path id="Pfad_33" data-name="Pfad 33" d="M117.357,97.2a6.368,6.368,0,0,1-3.9-1.488,13.745,13.745,0,0,1-3.266-3.811,23.865,23.865,0,0,1-2.98-6.967,9.082,9.082,0,0,1,.025-5.026,4.9,4.9,0,0,1,1.511-2.251,1.283,1.283,0,0,1,.283-.172q1.244-.581,2.492-1.155a.731.731,0,0,1,1.14.4q1.1,2.253,2.188,4.508c.181.375.142.479-.251.661-.932.433-1.866.861-2.8,1.3-.6.28-.751.511-.606,1.145a7.182,7.182,0,0,0,.5,1.455c.689,1.46,1.4,2.91,2.128,4.353a4.989,4.989,0,0,0,.634.925.883.883,0,0,0,1.246.265c.945-.431,1.886-.871,2.829-1.3.409-.188.511-.155.705.245q1.1,2.253,2.189,4.508c.263.545.148.842-.418,1.107-.688.321-1.386.624-2.063.964A3.3,3.3,0,0,1,117.357,97.2Z" transform="translate(-97.012 -70.177)" fill="#d3bd53"/>
</svg>
